{
    "page": 1,
    "sort": 1,
    "type": 8,
    "structure": {
        "title": "News",
        "description": "description",
        "news": [
            {
                "title": "title",
                "description": "description",
                "image": "image link"
            },
            {
                "title": "title",
                "description": "description",
                "image": "image link"
            },
            {
                "title": "title",
                "description": "description",
                "image": "image link"
            },
            {
                "title": "title",
                "description": "description",
                "image": "image link"
            }
        ]
    },
    "active": true
}
